
******************************LMMR- WHITE LABEL CODE********************************
(1). Please copy/paste this tag in the head sction of the page.
    <script src="http://www.lastminutemeetingroom.com/LMMR/js/jquery-1.7.1.min.js" type="text/javascript"></script>
    <script src="http://www.lastminutemeetingroom.com/LMMR/js/WLServices.js?w=1&style=false" type="text/javascript"></script>

(2). Please copy/paste below DIV where you want to put this label.

    <div id="search_canvas"></div>

NOTE: Minimum width should be 275 px.
      
**************************************THANKS*****************************************
