22772010_12_9_2012_17_31_43
*******************************************
Hotel ID : 150
Hotel Name : Van der Valk Hotel Brussels Airport
Booking ID : 180
*******************************************
Fax Number : 22772010
User ID : 493
User Name : sharon
Email : test_banqueting@brussels.valk.com
Address : tesing address
Postal Code : 123456
Country : Belgium
Contact Number : 98279999
Card Type : American Express
Card Name : Testing by Pranayesh
Card Number : 371449635398431
Cvc Number : 1234
Expiry Date : 01/2015
